Introduction to R
…
Your answer never needs to match ours perfectly. Our goal is just to
ensure that you are actually following the instructions.

Exercise 3

Data frames, also referred to as “tibbles,” are spreadsheet-type data
sets.

In the Console, run diamonds.

CP/CR.

diamonds

## # A tibble: 53,940 × 10
##    carat cut       color clarity depth table price     x     y     z
##    <dbl> <ord>     <ord> <ord>   <dbl> <dbl> <int> <dbl> <dbl> <dbl>
##  1  0.23 Ideal     E     SI2      61.5    55   326  3.95  3.98  2.43
##  2  0.21 Premium   E     SI1      59.8    61   326  3.89  3.84  2.31
##  3  0.23 Good      E     VS1      56.9    65   327  4.05  4.07  2.31
##  4  0.29 Premium   I     VS2      62.4    58   334  4.2   4.23  2.63
##  5  0.31 Good      J     SI2      63.3    58   335  4.34  4.35  2.75
##  6  0.24 Very Good J     VVS2     62.8    57   336  3.94  3.96  2.48
##  7  0.24 Very Good I     VVS1     62.3    57   336  3.95  3.98  2.47
##  8  0.26 Very Good H     SI1      61.9    55   337  4.07  4.11  2.53
##  9  0.22 Fair      E     VS2      65.1    61   337  3.87  3.78  2.49
## 10  0.23 Very Good H     VS1      59.4    61   338  4     4.05  2.39
## # ℹ 53,930 more rows
…
Editing code directly in the Console quickly becomes annoying. See
the positron.tutorials
package for tutorials about using Positron to write and organize your
code.

Exercise 7

In the Console, run print() on diamonds.
This returns the same result as typing diamonds.

CP/CR.

print(diamonds)

## # A tibble: 53,940 × 10
##    carat cut       color clarity depth table price     x     y     z
##    <dbl> <ord>     <ord> <ord>   <dbl> <dbl> <int> <dbl> <dbl> <dbl>
##  1  0.23 Ideal     E     SI2      61.5    55   326  3.95  3.98  2.43
##  2  0.21 Premium   E     SI1      59.8    61   326  3.89  3.84  2.31
##  3  0.23 Good      E     VS1      56.9    65   327  4.05  4.07  2.31
##  4  0.29 Premium   I     VS2      62.4    58   334  4.2   4.23  2.63
##  5  0.31 Good      J     SI2      63.3    58   335  4.34  4.35  2.75
##  6  0.24 Very Good J     VVS2     62.8    57   336  3.94  3.96  2.48
##  7  0.24 Very Good I     VVS1     62.3    57   336  3.95  3.98  2.47
##  8  0.26 Very Good H     SI1      61.9    55   337  4.07  4.11  2.53
##  9  0.22 Fair      E     VS2      65.1    61   337  3.87  3.78  2.49
## 10  0.23 Very Good H     VS1      59.4    61   338  4     4.05  2.39
## # ℹ 53,930 more rows
You can choose how many rows to display by using the n
argument in the print() function, and how many columns to
display by using the width argument.

Exercise 8

In the Console, run print() on diamonds
with the argument n = 3. This returns the first 3 rows of
the diamonds data set.

CP/CR.

print(diamonds, n = 3)

## # A tibble: 53,940 × 10
##   carat cut     color clarity depth table price     x     y     z
##   <dbl> <ord>   <ord> <ord>   <dbl> <dbl> <int> <dbl> <dbl> <dbl>
## 1  0.23 Ideal   E     SI2      61.5    55   326  3.95  3.98  2.43
## 2  0.21 Premium E     SI1      59.8    61   326  3.89  3.84  2.31
## 3  0.23 Good    E     VS1      56.9    65   327  4.05  4.07  2.31
## # ℹ 53,937 more rows
…
R is a free, open-source programming language and software environment designed specifically for statistical computing, data analysis, and creating data visualizations.

If you do not want to pay for an AI service, then you will probably
need to have free accounts with several different services. That way, if
one service cuts you off for the day, you can switch to another.

Exercise 2

Type diamonds in the Console. Hit Enter.
Copy/paste the command and the first few lines of the tibble.

diamonds

## # A tibble: 53,940 × 10
##    carat cut       color clarity depth table price     x     y     z
##    <dbl> <ord>     <ord> <ord>   <dbl> <dbl> <int> <dbl> <dbl> <dbl>
##  1  0.23 Ideal     E     SI2      61.5    55   326  3.95  3.98  2.43
##  2  0.21 Premium   E     SI1      59.8    61   326  3.89  3.84  2.31
##  3  0.23 Good      E     VS1      56.9    65   327  4.05  4.07  2.31
##  4  0.29 Premium   I     VS2      62.4    58   334  4.2   4.23  2.63
##  5  0.31 Good      J     SI2      63.3    58   335  4.34  4.35  2.75
##  6  0.24 Very Good J     VVS2     62.8    57   336  3.94  3.96  2.48
##  7  0.24 Very Good I     VVS1     62.3    57   336  3.95  3.98  2.47
##  8  0.26 Very Good H     SI1      61.9    55   337  4.07  4.11  2.53
##  9  0.22 Fair      E     VS2      65.1    61   337  3.87  3.78  2.49
## 10  0.23 Very Good H     VS1      59.4    61   338  4     4.05  2.39
## # ℹ 53,930 more rows
…
Copy/paste the top of the diamonds tibble into your AI
interface and ask it to create a pipe which calculates the average value
of carat for all combinations of cut and
color. Run the provided code in the Console. If it fails,
show the AI the error and ask for better code.

CP/CR.

Claude gave us this answer:

diamonds %>%
  group_by(cut, color) %>%
  summarise(avg_carat = mean(carat), .groups = "drop")

## # A tibble: 35 × 3
##    cut   color avg_carat
##    <ord> <ord>     <dbl>
##  1 Fair  D         0.920
##  2 Fair  E         0.857
##  3 Fair  F         0.905
##  4 Fair  G         1.02 
##  5 Fair  H         1.22 
##  6 Fair  I         1.20 
##  7 Fair  J         1.34 
##  8 Good  D         0.745
##  9 Good  E         0.745
## 10 Good  F         0.776
## # ℹ 25 more rows

But we don’t like this answer! First, it uses %>%, an
older version of the pipe symbol, instead of |>. Second,
it uses group_by(), which necessitates the addition of the
confusing .groups argument. We would have preferred:

## # A tibble: 35 × 3
##    cut       color avg_carat
##    <ord>     <ord>     <dbl>
##  1 Ideal     E         0.578
##  2 Premium   E         0.718
##  3 Good      E         0.745
##  4 Premium   I         1.14 
##  5 Good      J         1.10 
##  6 Very Good J         1.13 
##  7 Very Good I         1.05 
##  8 Very Good H         0.916
##  9 Fair      E         0.857
## 10 Ideal     J         1.06 
## # ℹ 25 more rows
…
